{
    "outlet_name": "Decatur Tribune",
    "feed_name": "City Beat", 

    "url": "https://www.decaturtribune.com/category/osborne-online/",

    "initial_page_depth": 10,
    "standard_page_depth": 2,
    "max_poll_frequency": 360,

    "article_selector": "//article[@itemtype=\"http://schema.org/BlogPosting\"]",

    "title_selector": "//header/h2/a",
    "url_selector": "//header/h2/a",
    "description_selector": "//div[@itemprop=\"text\"]/p",
    "photo_selector": "//div[@class=\"row\"]/div[1]/div/a/img[@itemprop=\"image\"]",
    "old_next_page_selector":"//div[@class=\"fl-page\"]/div[@class=\"fl-page-content\"]/div[@itemtype=\"http://schema.org/Blog\"]/nav/div[@class=\"fl-archive-nav-next\"]/a",
    "next_page_selector":"//nav/div[@class=\"fl-archive-nav-next\"]/a",

    "date_selector": "//header/div/span[1]",
    "date_format": "Y-m-d",
    
    "pagination_delay_ms": 5000
}
