{
    "source": {
        "name": "decatur-vote/news",
        "feed_names": [
            "decatur-vote/news"
        ],
        "max_poll_frequency": 1,
        "description_selector": "//meta[@property=\"og:description\"]",
        "article_selector": "//div[@itemtype=\"https://schema.org/Article\"]",
        "title_selector": "//h1",
        "photo_selector": "//img[@itemprop=\"image\"]",
        "created_date_selector": "//time[@itemprop=\"dateCreated\"]",
        "updated_date_selector": "//time[@itemprop=\"dateModified\"]",
        "body_selector": "//div[@itemprop=\"articleBody\"]",
        "author_selector": "//small/a[2]",
        "author_url_selector": "//small/a[2]",
        "host_url": "https://www.decaturvote.com",
        "delay_ms_between_downloads": 1,
        "version":3
    },
    "articles": {
        "Special DPS Board Meeting July 24th": {
            "url": "https://www.decaturvote.com/story/dennis-schools-structural-issues/special-dps-board-meeting-july-24th/",
            "title": "Special DPS Board Meeting July 24th",
            "description": "The Decatur Public Schools Board of Education will hold a special meeting on Monday, July 24th, 2023 at 5:30pm at the Keil Administration Building.",
            "photo_url": "https://www.decaturvote.com/files/download/?stored_name=50ae79b7764fe5d9dc9d2b3c93d3cd777298650b-64b8130b1e65e.jpg",
            "author_name": "Reed Sutman",
            "author_url": "https://www.decaturvote.com/author/reed-sutman/",
            "created_date": "2023-07-19T09:38:49-05:00",
            "updated_date": "2023-07-19T09:45:02-05:00"
        },
        "Keil Administration Building": {
            "url": "https://www.decaturvote.com/story/keil-administration-building/keil-administration-building/",
            "title": "Keil Administration Building",
            "description": "The Keil Administration Building (or Keil Building) houses DPS61 Administrative offices, and the Board room where most Board of Education meetings are held.",
            "photo_url": "https://www.decaturvote.com/files/download/?stored_name=440a3ce9543218ec35bf35da0209f3b02610941b-64b80ecd3e5e9.jpg",
            "author_name": "Reed Sutman",
            "author_url": "https://www.decaturvote.com/author/reed-sutman/",
            "created_date": "2023-07-19T09:27:00-05:00",
            "updated_date": "2023-07-19T09:27:00-05:00"
        },
        "2013 HLS Surveys": {
            "url": "https://www.decaturvote.com/story/dennis-schools-structural-issues/2013-hls-surveys/",
            "title": "2013 HLS Surveys",
            "description": "School Districts are required to get detailed inspections, by structural engineers, of all District buildings every 10 years. After the two Dennis buildings ...",
            "photo_url": null,
            "author_name": "Reed Sutman",
            "author_url": "https://www.decaturvote.com/author/reed-sutman/",
            "created_date": "2023-07-20T11:19:01-05:00",
            "updated_date": "2023-07-20T11:19:01-05:00"
        },
        "2024 Illinois Elections": {
            "url": "https://www.decaturvote.com/story/2024-illinois-elections/2024-illinois-elections/",
            "title": "2024 Illinois Elections",
            "description": "In Illinois, the 2024 Primaries election is March 19th, and the General Election is November 3rd, 2024.",
            "photo_url": null,
            "author_name": "Reed Sutman",
            "author_url": "https://www.decaturvote.com/author/reed-sutman/",
            "created_date": "2023-07-20T09:36:17-05:00",
            "updated_date": "2023-07-20T09:36:17-05:00"
        },
        "Our sources related to Dennis": {
            "url": "https://www.decaturvote.com/story/dennis-schools-structural-issues/our-sources-related-to-dennis/",
            "title": "Our sources related to Dennis",
            "description": "This is a comprehensive catalogue of documents, emails, interviews, our internal notes, and other sources related to the Dennis Story.",
            "photo_url": null,
            "author_name": "Reed Sutman",
            "author_url": "https://www.decaturvote.com/author/reed-sutman/",
            "created_date": "2023-07-25T12:54:00-05:00",
            "updated_date": "2023-08-03T13:55:28-05:00"
        },
        "How is DPS61 building safety ensured?": {
            "url": "https://www.decaturvote.com/story/dennis-schools-structural-issues/how-is-dps61-building-safety-ensured/",
            "title": "How is DPS61 building safety ensured?",
            "description": "After Dennis School Closures, Decatur Public Schools released the 2013 Health, Life, Safety reports, which include detailed inspections of both the original ...",
            "photo_url": "https://www.decaturvote.com/files/download/?stored_name=44915392e5a832e463c760b20de1aeb3bca638cf-64c01c4e935ba.jpeg",
            "author_name": "Reed Sutman",
            "author_url": "https://www.decaturvote.com/author/reed-sutman/",
            "created_date": "2023-07-25T11:44:40-05:00",
            "updated_date": "2023-07-25T12:02:40-05:00"
        },
        "Dennis Updates & a $25 million Magnet School Contract": {
            "url": "https://www.decaturvote.com/story/dennis-schools-structural-issues/dennis-updates-a-25-million-magnet-school-contract/",
            "title": "Dennis Updates & a $25 million Magnet School Contract",
            "description": "DPS61 held a special board meeting on July 24th, 2023 to approve a General Contractor bid for the new K-8 Magnet School, to provide updates about The Dennis ...",
            "photo_url": "https://www.decaturvote.com/files/download/?stored_name=a77023f1ddf9bfe86b055617cf031e8732a234b3-64c43011657d3.jpg",
            "author_name": "Reed Sutman",
            "author_url": "https://www.decaturvote.com/author/reed-sutman/",
            "created_date": "2023-07-28T13:39:07-05:00",
            "updated_date": "2023-07-28T14:16:03-05:00"
        },
        "Electric Buses and DPS61 Funds": {
            "url": "https://www.decaturvote.com/story/decatur-public-schools/electric-buses-and-dps61-funds/",
            "title": "Electric Buses and DPS61 Funds",
            "description": "Today's Finance Committee Meeting covered discussion of electric buses, a delayed budget, and fund balances.",
            "photo_url": "https://www.decaturvote.com/files/download/?stored_name=40621986358ede8b5fea081d0af83bd46b00c700-64c98a3f009df.jpg",
            "author_name": "Reed Sutman",
            "author_url": "https://www.decaturvote.com/author/reed-sutman/",
            "created_date": "2023-08-01T15:41:28-05:00",
            "updated_date": "2023-08-01T15:42:08-05:00"
        },
        "DPS61 Finance Committee Meeting Tonight August 1 2023": {
            "url": "https://www.decaturvote.com/story/decatur-public-schools/dps61-finance-committee-meeting-tonight-august-1-2023/",
            "title": "DPS61 Finance Committee Meeting Tonight August 1 2023",
            "description": "DPS61 will hold a Finance Committee Meeting tonight, Tuesday August 1, 2023, at 4pm at the Keil Administration Building, 101 West Cerro Gordo Street, in the ...",
            "photo_url": "https://www.decaturvote.com/files/download/?stored_name=440a3ce9543218ec35bf35da0209f3b02610941b-64b80efc497df.jpg",
            "author_name": "Reed Sutman",
            "author_url": "https://www.decaturvote.com/author/reed-sutman/",
            "created_date": "2023-08-01T09:37:29-05:00",
            "updated_date": "2023-08-01T09:38:41-05:00"
        },
        "Summary of Decatur Public Schools District 61": {
            "url": "https://www.decaturvote.com/story/decatur-public-schools/summary-of-decatur-public-schools-district-61/",
            "title": "Summary of Decatur Public Schools District 61",
            "description": "Decatur Public Schools District 61 (DPS61) is governed by a Board of officials elected in odd-numbered years during municipal elections, and led by a Superin...",
            "photo_url": null,
            "author_name": "Reed Sutman",
            "author_url": "https://www.decaturvote.com/author/reed-sutman/",
            "created_date": "2023-08-09T09:08:23-05:00",
            "updated_date": "2023-08-09T09:08:23-05:00"
        },
        "District-Wide Inspections, Dennis Repair Estimates, Long Term Planning": {
            "url": "https://www.decaturvote.com/story/dennis-schools-structural-issues/district-wide-inspections-dennis-repair-estimates-long-term-planning/",
            "title": "District-Wide Inspections, Dennis Repair Estimates, Long Term Planning",
            "description": "The Board of Education directed staff to move forward with a district-wide analysis, and to concurrently prioritize getting repair estimates on the two Denni...",
            "photo_url": "https://www.decaturvote.com/files/download/?stored_name=62894fac88617ad0b96536d530c4cc1e1a9078cb-64d6ab2fa7efd.jpg",
            "author_name": "Reed Sutman",
            "author_url": "https://www.decaturvote.com/author/reed-sutman/",
            "created_date": "2023-08-11T14:42:21-05:00",
            "updated_date": "2023-08-11T14:55:55-05:00"
        },
        "DPS61 Student Enrollment in Decline, Especially Among White Students": {
            "url": "https://www.decaturvote.com/story/decatur-public-schools/dps61-student-enrollment-in-decline-especially-among-white-students/",
            "title": "DPS61 Student Enrollment in Decline, Especially Among White Students",
            "description": "8,147 students were enrolled in Decatur Public Schools for 2021-2022, according to the Illinois Report Card. This number has declined each school year since ...",
            "photo_url": "https://www.decaturvote.com/files/download/?stored_name=aa68bb29c67df9855cdaecb28df47d28da7211a4-64d694c48eed0.jpg",
            "author_name": "Reed Sutman",
            "author_url": "https://www.decaturvote.com/author/reed-sutman/",
            "created_date": "2023-08-11T13:06:31-05:00",
            "updated_date": "2023-08-11T13:10:28-05:00"
        },
        "DFTA Union Contract Summary": {
            "url": "https://www.decaturvote.com/story/dfta-union-contract/dfta-union-contract-summary/",
            "title": "DFTA Union Contract Summary",
            "description": "This page will consolidate articles and information regarding the 2023 DFTA union contract.",
            "photo_url": null,
            "author_name": "Reed Sutman",
            "author_url": "https://www.decaturvote.com/author/reed-sutman/",
            "created_date": "2023-08-23T07:52:26-05:00",
            "updated_date": "2023-08-23T07:52:26-05:00"
        },
        "Documents related to my Dennis investigations": {
            "url": "https://www.decaturvote.com/story/dennis-schools-structural-issues/documents-related-to-my-dennis-investigations/",
            "title": "Documents related to my Dennis investigations",
            "description": "I've been investigating the closure of the two Dennis Lab Schools. You can see a Catalogue of my Sources.",
            "photo_url": null,
            "author_name": "Reed Sutman",
            "author_url": "https://www.decaturvote.com/author/reed-sutman/",
            "created_date": "2023-08-24T13:08:52-05:00",
            "updated_date": "2023-08-24T13:48:44-05:00"
        },
        "Decatur Schools giving a 'hard no' to union requests, says DFTA President": {
            "url": "https://www.decaturvote.com/story/dfta-union-contract/decatur-schools-giving-a-hard-no-to-union-requests-says-dfta-president/",
            "title": "Decatur Schools giving a 'hard no' to union requests, says DFTA President",
            "description": "The Decatur Federation of Teaching Assistants union contract expired about 2 months ago, on June 30th, 2023. They've been negotiating since March and have be...",
            "photo_url": "https://www.decaturvote.com/files/download/?stored_name=2df7bc1caad4b385d9355a67b2d469fdab4efdc3-64e792a57c2ce.jpg",
            "author_name": "Reed Sutman",
            "author_url": "https://www.decaturvote.com/author/reed-sutman/",
            "created_date": "2023-08-24T10:26:06-05:00",
            "updated_date": "2023-08-24T10:40:44-05:00"
        },
        "Finance Committee, September 5th 2023 - Decatur Public Schools #61": {
            "url": "https://www.decaturvote.com/story/decatur-public-schools/finance-committee-september-5th-2023-decatur-public-schools-61/",
            "title": "Finance Committee, September 5th 2023 - Decatur Public Schools #61",
            "description": "Decatur Public Schools District 61 held a Finance Committee Meeting on September 5th, 2023, at 4:00pm at the Keil Building. The last finance meeting was Augu...",
            "photo_url": "https://www.decaturvote.com/files/download/?stored_name=346ee3c788f0331aaaad3699a4fd0016e4f96c9e-64f8c00257aaa.jpeg",
            "author_name": "Reed Sutman",
            "author_url": "https://www.decaturvote.com/author/reed-sutman/",
            "created_date": "2023-09-06T10:51:06-05:00",
            "updated_date": "2023-09-06T11:08:03-05:00"
        },
        "Decatur's Dennis Lab had 2013 Water Damage Repaired in 2019, District records show": {
            "url": "https://www.decaturvote.com/story/dennis-schools-structural-issues/decaturs-dennis-lab-had-2013-water-damage-repaired-in-2019-district-records-show/",
            "title": "Decatur's Dennis Lab had 2013 Water Damage Repaired in 2019, District records show",
            "description": "I reviewed over 800 maintenance requests for Dennis Lab's Mosaic Campus from 2017 through 2023, looking for any signs of negligence. The District has been pr...",
            "photo_url": "https://www.decaturvote.com/files/download/?stored_name=23d59d02f0a25941f59f06cef23b1583931c854e-64fa1aac61236.jpg",
            "author_name": "Reed Sutman",
            "author_url": "https://www.decaturvote.com/author/reed-sutman/",
            "created_date": "2023-09-07T09:56:18-05:00",
            "updated_date": "2023-09-08T08:22:59-05:00"
        },
        "Was the District Negligent? Sept 12 BOE Speech": {
            "url": "https://www.decaturvote.com/story/dennis-schools-structural-issues/was-the-district-negligent-sept-12-boe-speech/",
            "title": "Was the District Negligent? Sept 12 BOE Speech",
            "description": "This is a speech for the Decatur Public Schools Board of Education, for September 12th, 2023, to be delivered by Reed Sutman",
            "photo_url": null,
            "author_name": "Reed Sutman",
            "author_url": "https://www.decaturvote.com/author/reed-sutman/",
            "created_date": "2023-09-12T12:49:09-05:00",
            "updated_date": "2023-09-12T12:52:25-05:00"
        },
        "Unions Rally before DPS61 Board Meeting September 12th, 2023": {
            "url": "https://www.decaturvote.com/story/dfta-union-contract/unions-rally-before-dps61-board-meeting-september-12th-2023/",
            "title": "Unions Rally before DPS61 Board Meeting September 12th, 2023",
            "description": "Decatur Public Schools held a Board of Education Meeting on September 12th, 2023 at the Keil Administration Building.",
            "photo_url": "https://www.decaturvote.com/files/download/?stored_name=5b1ed28ecdc10c5a67bfd112cb3fdc7f1933a1ef-6501f1b9ac96c.jpeg",
            "author_name": "Reed Sutman",
            "author_url": "https://www.decaturvote.com/author/reed-sutman/",
            "created_date": "2023-09-13T10:20:32-05:00",
            "updated_date": "2023-09-13T10:32:37-05:00"
        },
        "Decatur Schools should release video footage and reports of Aug 23 Bus incident": {
            "url": "https://www.decaturvote.com/story/decatur-public-schools/decatur-schools-should-release-video-footage-and-reports-of-aug-23-bus-incident/",
            "title": "Decatur Schools should release video footage and reports of Aug 23 Bus incident",
            "description": "There was an August 23rd, 2023 bus incident. There were allegations that the bus hit a parked car. Herald & Review reported this was a \\",
            "photo_url": "https://www.decaturvote.com/files/download/?stored_name=e43ffcd549f597455200db8b2685b58786c3b005-65048f5dec289.jpeg",
            "author_name": "Reed Sutman",
            "author_url": "https://www.decaturvote.com/author/reed-sutman/",
            "created_date": "2023-09-15T09:04:02-05:00",
            "updated_date": "2023-09-15T10:36:32-05:00"
        },
        "Communications leading up to Decatur's Dennis Lab Closures June 2023 FOIA": {
            "url": "https://www.decaturvote.com/story/dennis-schools-structural-issues/communications-leading-up-to-decaturs-dennis-lab-closures-june-2023-foia/",
            "title": "Communications leading up to Decatur's Dennis Lab Closures June 2023 FOIA",
            "description": "Dennis Lab Schools were closed on May 31st, 2023 due to structural concerns, which were analyzed the previous day by Bacon Farmer Workman Engineering & Testi...",
            "photo_url": "https://www.decaturvote.com/files/download/?stored_name=88fdfc03c56e0ca4eda56794a746878d6ffa7d37-6515db8062698.png",
            "author_name": "Reed Sutman",
            "author_url": "https://www.decaturvote.com/author/reed-sutman/",
            "created_date": "2023-09-28T12:42:43-05:00",
            "updated_date": "2023-09-28T13:29:42-05:00"
        },
        "Garfield Learning Academy 2022-2023 Budget Decatur IL Schools": {
            "url": "https://www.decaturvote.com/story/decatur-public-schools/garfield-learning-academy-2022-2023-budget-decatur-il-schools/",
            "title": "Garfield Learning Academy 2022-2023 Budget Decatur IL Schools",
            "description": "The Garfield Learning Academy budget for July 1, 2022 - May 23, 2023 shows $5,736.70 in transactions, with an ending budget balance of -1,311.51.",
            "photo_url": "https://www.decaturvote.com/files/download/?stored_name=e13449dca634b94b5c6b1bd471ee6e026b418dd7-6515cac325508.png",
            "author_name": "Reed Sutman",
            "author_url": "https://www.decaturvote.com/author/reed-sutman/",
            "created_date": "2023-09-28T11:45:36-05:00",
            "updated_date": "2023-09-28T11:49:58-05:00"
        },
        "Dennis Repair Estimates - FOIA Request Denied, Upcoming Board Meeting": {
            "url": "https://www.decaturvote.com/story/dennis-schools-structural-issues/dennis-repair-estimates-foia-request-denied-upcoming-board-meeting/",
            "title": "Dennis Repair Estimates - FOIA Request Denied, Upcoming Board Meeting",
            "description": "During the September 12th Board of Education Meeting, Board Member Mark Reynolds said \\",
            "photo_url": "https://www.decaturvote.com/files/download/?stored_name=0adcfcdeaa9fd9bd15577b000aaf94a3dee9747e-6515b32ac3887.jpeg",
            "author_name": "Reed Sutman",
            "author_url": "https://www.decaturvote.com/author/reed-sutman/",
            "created_date": "2023-09-28T10:09:13-05:00",
            "updated_date": "2023-09-28T10:31:43-05:00"
        },
        "August 2022 report details 'compromised masonry' at Kaleidoscope in Decatur": {
            "url": "https://www.decaturvote.com/story/dennis-schools-structural-issues/august-2022-report-details-compromised-masonry-at-kaleidoscope-in-decatur/",
            "title": "August 2022 report details 'compromised masonry' at Kaleidoscope in Decatur",
            "description": "The August 2022 project list details HVAC issues at Eisenhower, \\",
            "photo_url": "https://www.decaturvote.com/files/download/?stored_name=1c035d02bf573511f3c43768449e9c6dfc1eaaf5-651d908244a86.jpeg",
            "author_name": "Reed Sutman",
            "author_url": "https://www.decaturvote.com/author/reed-sutman/",
            "created_date": "2023-10-03T11:48:47-05:00",
            "updated_date": "2023-10-05T08:38:13-05:00"
        },
        "Status Update for Decatur Vote October 2023": {
            "url": "https://www.decaturvote.com/story/decatur-vote/status-update-for-decatur-vote-october-2023/",
            "title": "Status Update for Decatur Vote October 2023",
            "description": "Long story short, I am putting down the Dennis investigation and School District coverage to focus on website updates, 2024 election-related work, and catalo...",
            "photo_url": "https://www.decaturvote.com/files/download/?stored_name=bb5034a5808ff6cf9291cd91515065f1a5f63562-6537f54b30fb8.jpeg",
            "author_name": "Reed Sutman",
            "author_url": "https://www.decaturvote.com/author/reed-sutman/",
            "created_date": "2023-10-24T09:46:41-05:00",
            "updated_date": "2023-10-24T09:48:13-05:00"
        },
        "There should be a state-wide Public Notices Database": {
            "url": "https://www.decaturvote.com/story/decatur-vote/there-should-be-a-state-wide-public-notices-database/",
            "title": "There should be a state-wide Public Notices Database",
            "description": "Public Notice Illinois's purpose is to provide \\",
            "photo_url": "https://www.decaturvote.com/files/download/?stored_name=9c9ddb3ebe9f6afd1888c19ed9333f1ecc47b180-6543de8aae33c.png",
            "author_name": "Reed Sutman",
            "author_url": "https://www.decaturvote.com/author/reed-sutman/",
            "created_date": "2023-11-02T10:38:25-05:00",
            "updated_date": "2023-11-02T10:38:25-05:00"
        },
        "FOIA Request for DPS61 Buildings Policy Documents": {
            "url": "https://www.decaturvote.com/story/decatur-public-schools/foia-request-for-dps61-buildings-policy-documents/",
            "title": "FOIA Request for DPS61 Buildings Policy Documents",
            "description": "Decatur Public School District 61's Policy 4:150 states the Board's goal to \\",
            "photo_url": "https://www.decaturvote.com/files/download/?stored_name=cc636bbc9b9adaf6c291bbd8219fb710701fa8c7-6543d7628e6b8.png",
            "author_name": "Reed Sutman",
            "author_url": "https://www.decaturvote.com/author/reed-sutman/",
            "created_date": "2023-11-02T10:01:41-05:00",
            "updated_date": "2023-11-02T10:07:54-05:00"
        },
        "\"I find this unethical and bordering on intimidation \" Decatur School Board Member": {
            "url": "https://www.decaturvote.com/story/decatur-public-schools/i-find-this-unethical-and-bordering-on-intimidation-decatur-school-board-member/",
            "title": "\"I find this unethical and bordering on intimidation \" Decatur School Board Member",
            "description": "Decatur Public Schools District 61 Board Member Dr. Kevin Collins-Brown emailed Board President Bill Clevenger and Superintendent Dr. Rochelle Clark, accusin...",
            "photo_url": "https://www.decaturvote.com/files/download/?stored_name=15ff10cc067b9eeb8b43903bcc5fd66b3fdf62c9-654d37d31e975.png",
            "author_name": "Reed Sutman",
            "author_url": "https://www.decaturvote.com/author/reed-sutman/",
            "created_date": "2023-11-09T10:23:52-06:00",
            "updated_date": "2023-11-09T11:49:47-06:00"
        },
        "Decatur School Board Emails October 24th & 25th 2023": {
            "url": "https://www.decaturvote.com/story/decatur-public-schools/decatur-school-board-emails-october-24th-25th-2023/",
            "title": "Decatur School Board Emails October 24th & 25th 2023",
            "description": "I sent a FOIA Request for all emails sent by Decatur Public Schools District 61 Board Members from October 24th, 2023 through October 25th, 2023.",
            "photo_url": "https://www.decaturvote.com/files/download/?stored_name=6d740160596dc9bb12f330e20e49c265612986fa-654d233a4bfe6.jpeg",
            "author_name": "Reed Sutman",
            "author_url": "https://www.decaturvote.com/author/reed-sutman/",
            "created_date": "2023-11-09T10:13:59-06:00",
            "updated_date": "2023-11-09T11:17:18-06:00"
        },
        "2023 DPS61 Summer Programs Payments FOIA Request": {
            "url": "https://www.decaturvote.com/story/decatur-public-schools/2023-dps61-summer-programs-payments-foia-request/",
            "title": "2023 DPS61 Summer Programs Payments FOIA Request",
            "description": "I sent a Freedom of Information Act Request for detailed payment records relating to Decatur Public Schools District 61 2023 Summer Programs.",
            "photo_url": "https://www.decaturvote.com/files/download/?stored_name=46701549444fd4efee29206e8e0a0ce580d45d97-654e77a082fea.png",
            "author_name": "Reed Sutman",
            "author_url": "https://www.decaturvote.com/author/reed-sutman/",
            "created_date": "2023-11-10T10:17:06-06:00",
            "updated_date": "2023-11-10T10:34:12-06:00"
        },
        "Representing the community Shelith Hansbro": {
            "url": "https://www.decaturvote.com/story/shelith-hansbro/representing-the-community-shelith-hansbro/",
            "title": "Representing the community Shelith Hansbro",
            "description": "Shelith Hansbro, at an MLK Day Event with a black audience says \\",
            "photo_url": "https://www.decaturvote.com/files/download/?stored_name=bb49267ebed2f1b083e461b414c5adb8b21bf4f7-63d17c7093bb2.jpg",
            "author_name": "Reed Sutman",
            "author_url": "https://www.decaturvote.com/author/reed-sutman/",
            "created_date": "2023-01-25T11:12:04-06:00",
            "updated_date": "2023-01-25T11:12:04-06:00"
        },
        "Do we need a County Auditor?": {
            "url": "https://www.decaturvote.com/story/2023-consolidated-municipal-election/do-we-need-a-county-auditor/",
            "title": "Do we need a County Auditor?",
            "description": "The Macon County Auditor is the \\",
            "photo_url": "https://www.decaturvote.com/files/download/?stored_name=0a9d10c543d6ba42e19328193325b2cc7db4fecb-63d2e82ec4596.jpg",
            "author_name": "Reed Sutman",
            "author_url": "https://www.decaturvote.com/author/reed-sutman/",
            "created_date": "2023-01-26T12:53:53-06:00",
            "updated_date": "2023-01-27T08:59:01-06:00"
        },
        "Who is Carol Reed?": {
            "url": "https://www.decaturvote.com/story/carol-reed/who-is-carol-reed/",
            "title": "Who is Carol Reed?",
            "description": "Carol Reed is the County Auditor for Macon County in 2023.",
            "photo_url": "https://www.decaturvote.com/files/download/?stored_name=c521269bcb228d97823fbd8d314228221503cb68-63d2e29a3cd14.jpg",
            "author_name": "Reed Sutman",
            "author_url": "https://www.decaturvote.com/author/reed-sutman/",
            "created_date": "2023-01-26T12:30:31-06:00",
            "updated_date": "2023-01-26T12:30:31-06:00"
        },
        "Decatur Weekly News Recap Jan 27, 2023": {
            "url": "https://www.decaturvote.com/story/weekly-decatur-news-recap/decatur-weekly-news-recap-jan-27-2023/",
            "title": "Decatur Weekly News Recap Jan 27, 2023",
            "description": "County Auditor Referendum: A binding referendum could eliminate the office of County Auditor if voters say YES. If the elected position is eliminated, it is ...",
            "photo_url": "https://www.decaturvote.com/files/download/?stored_name=e6a3628841b703245b0c671d51300cacdd5ce116-63d4571ccdbac.png",
            "author_name": "Reed Sutman",
            "author_url": "https://www.decaturvote.com/author/reed-sutman/",
            "created_date": "2023-01-27T14:35:36-06:00",
            "updated_date": "2023-01-27T14:58:05-06:00"
        },
        "WAND TV Reporter Resigned": {
            "url": "https://www.decaturvote.com/article/wand-tv-reporter-resigned/",
            "title": "WAND TV Reporter Resigned",
            "description": "A WAND TV Reporter posted on Facebook that they had resigned from WAND TV, stating \\",
            "photo_url": "https://www.decaturvote.com/files/download/?stored_name=e32ee56605410fbbaecbebd23746e498c683c051-63d6b9a3a4c95.png",
            "author_name": "Reed Sutman",
            "author_url": "https://www.decaturvote.com/author/reed-sutman/",
            "created_date": "2023-01-27T11:34:36-06:00",
            "updated_date": "2023-01-29T10:18:25-06:00"
        },
        "Community, Business, Cannabis, Homelessness Karl Coleman": {
            "url": "https://www.decaturvote.com/story/karl-coleman/community-business-cannabis-homelessness-karl-coleman/",
            "title": "Community, Business, Cannabis, Homelessness Karl Coleman",
            "description": "Karl Coleman is running for city council, because he believes our city is in a \\",
            "photo_url": "https://www.decaturvote.com/files/download/?stored_name=1b256aa01216b28b60e51d88180100b3028a65b3-63d988f8a392e.jpg",
            "author_name": "Reed Sutman",
            "author_url": "https://www.decaturvote.com/author/reed-sutman/",
            "created_date": "2023-01-31T13:40:14-06:00",
            "updated_date": "2023-01-31T13:40:25-06:00"
        },
        "Who is Karl Coleman?": {
            "url": "https://www.decaturvote.com/story/karl-coleman/who-is-karl-coleman/",
            "title": "Who is Karl Coleman?",
            "description": "Karl Coleman currently (January 2023) serves as a Macon County Board Member and is running for Decatur City Council.",
            "photo_url": null,
            "author_name": "Reed Sutman",
            "author_url": "https://www.decaturvote.com/author/reed-sutman/",
            "created_date": "2023-01-31T13:26:58-06:00",
            "updated_date": "2023-01-31T13:27:13-06:00"
        },
        "Put our students first Jacob Jenkins": {
            "url": "https://www.decaturvote.com/story/jacob-jenkins/put-our-students-first-jacob-jenkins/",
            "title": "Put our students first Jacob Jenkins",
            "description": "Jacob Jenkins is running for Decatur School Board for \\",
            "photo_url": "https://www.decaturvote.com/files/download/?stored_name=194f7f98374f4bfd2c6165c1fa883b60525b1c75-63dab7838ebac.jpg",
            "author_name": "Reed Sutman",
            "author_url": "https://www.decaturvote.com/author/reed-sutman/",
            "created_date": "2023-02-01T11:03:58-06:00",
            "updated_date": "2023-02-01T11:18:43-06:00"
        },
        "Who is Jacob Jenkins?": {
            "url": "https://www.decaturvote.com/story/jacob-jenkins/who-is-jacob-jenkins/",
            "title": "Who is Jacob Jenkins?",
            "description": "Jacob Jenkins is a candidate for Decatur School Board in 2023.",
            "photo_url": null,
            "author_name": "Reed Sutman",
            "author_url": "https://www.decaturvote.com/author/reed-sutman/",
            "created_date": "2023-02-01T11:01:16-06:00",
            "updated_date": "2023-02-01T11:01:35-06:00"
        },
        "Controversies with the Macon County Health Board": {
            "url": "https://www.decaturvote.com/article/controversies-with-the-macon-county-health-board/",
            "title": "Controversies with the Macon County Health Board",
            "description": "On April 14, 2022, the County Board proposed 3 new appointments for the Board of Health (BOH). Shad Edwards commented that the BOH had a committee working si...",
            "photo_url": null,
            "author_name": "Reed Sutman",
            "author_url": "https://www.decaturvote.com/author/reed-sutman/",
            "created_date": "2023-02-03T13:00:06-06:00",
            "updated_date": "2023-02-03T13:00:06-06:00"
        },
        "Decatur Weekly Recap Feb 3, 2023": {
            "url": "https://www.decaturvote.com/story/weekly-decatur-news-recap/decatur-weekly-recap-feb-3-2023/",
            "title": "Decatur Weekly Recap Feb 3, 2023",
            "description": "This week's recap includes two new candidate writeups, health department resignations, a DPS job fair, Prosecutor Shortages, advocacy for Catholic Schools, L...",
            "photo_url": "https://www.decaturvote.com/files/download/?stored_name=e6f5d65b59872440be28a36c1dcba412ea5e9cea-63dd93020237f.png",
            "author_name": "Reed Sutman",
            "author_url": "https://www.decaturvote.com/author/reed-sutman/",
            "created_date": "2023-02-03T09:34:01-06:00",
            "updated_date": "2023-02-03T15:00:22-06:00"
        },
        "Anonymous message about MCHD resignation": {
            "url": "https://www.decaturvote.com/article/anonymous-message-about-mchd-resignation/",
            "title": "Anonymous message about MCHD resignation",
            "description": "I received an anonymous message expressing concerns about the departure of Brandi Binkley from the Macon County Health Department & the appointment of a new ...",
            "photo_url": null,
            "author_name": "Reed Sutman",
            "author_url": "https://www.decaturvote.com/author/reed-sutman/",
            "created_date": "2023-02-03T09:22:16-06:00",
            "updated_date": "2023-02-03T09:22:16-06:00"
        },
        "Who is Howard Buffett?": {
            "url": "https://www.decaturvote.com/story/howard-buffett/who-is-howard-buffett/",
            "title": "Who is Howard Buffett?",
            "description": "Howard Buffett is a son of Warren Buffett. He manages the Howard Buffett Foundation. He provides funding to local government, police, and others.",
            "photo_url": null,
            "author_name": "Reed Sutman",
            "author_url": "https://www.decaturvote.com/author/reed-sutman/",
            "created_date": "2023-02-10T13:30:40-06:00",
            "updated_date": "2023-02-10T13:30:40-06:00"
        },
        "Week of Decatur News Recap Feb 10, 2023": {
            "url": "https://www.decaturvote.com/story/weekly-decatur-news-recap/week-of-decatur-news-recap-feb-10-2023/",
            "title": "Week of Decatur News Recap Feb 10, 2023",
            "description": "Updates on City Council ordinances and funding, fire union negotiations, fraud charges, city departments, and more.",
            "photo_url": "https://www.decaturvote.com/files/download/?stored_name=cf3dca6aa370b218922eee7cd9ac1cfdf362bc66-63e6cea83921a.png",
            "author_name": "Reed Sutman",
            "author_url": "https://www.decaturvote.com/author/reed-sutman/",
            "created_date": "2023-02-10T08:25:42-06:00",
            "updated_date": "2023-02-10T15:09:30-06:00"
        },
        "Will Wetzel - Everything has to start with student learning and student outcomes": {
            "url": "https://www.decaturvote.com/story/will-wetzel/will-wetzel-everything-has-to-start-with-student-learning-and-student-outcomes/",
            "title": "Will Wetzel - Everything has to start with student learning and student outcomes",
            "description": "\\",
            "photo_url": "https://www.decaturvote.com/files/download/?stored_name=eaacdec768bebbf4c8ab85a52b1df2d593f26036-63ebf598ab416.jpg",
            "author_name": "Reed Sutman",
            "author_url": "https://www.decaturvote.com/author/reed-sutman/",
            "created_date": "2023-02-14T12:57:19-06:00",
            "updated_date": "2023-02-14T13:59:19-06:00"
        },
        "Decatur Weekly Recap Feb 17, 2023": {
            "url": "https://www.decaturvote.com/story/weekly-decatur-news-recap/decatur-weekly-recap-feb-17-2023/",
            "title": "Decatur Weekly Recap Feb 17, 2023",
            "description": "This week we cover Will Wetzel for School Board, leadership changes in the Health Department, an ADM Strike, fighting at Decatur Schools, and the City Counci...",
            "photo_url": "https://www.decaturvote.com/files/download/?stored_name=fcf20e5982ff3996ac8b914dfb0cf302ce2f2cfb-63f0127992a22.png",
            "author_name": "Reed Sutman",
            "author_url": "https://www.decaturvote.com/author/reed-sutman/",
            "created_date": "2023-02-17T15:27:09-06:00",
            "updated_date": "2023-02-17T15:27:09-06:00"
        },
        "Donate to Will Wetzel": {
            "url": "https://www.decaturvote.com/story/will-wetzel/donate-to-will-wetzel/",
            "title": "Donate to Will Wetzel",
            "description": "To Donate to Will Wetzel's campaign for School Board, use one of the following:",
            "photo_url": null,
            "author_name": "Reed Sutman",
            "author_url": "https://www.decaturvote.com/author/reed-sutman/",
            "created_date": "2023-02-21T09:51:29-06:00",
            "updated_date": "2023-02-22T08:33:12-06:00"
        },
        "Who is Bill Clevenger?": {
            "url": "https://www.decaturvote.com/story/bill-clevenger/who-is-bill-clevenger/",
            "title": "Who is Bill Clevenger?",
            "description": "Bill Clevenger is a candidate for Decatur School Board in the 2023 race.",
            "photo_url": null,
            "author_name": "Reed Sutman",
            "author_url": "https://www.decaturvote.com/author/reed-sutman/",
            "created_date": "2023-02-23T09:17:26-06:00",
            "updated_date": "2023-02-23T09:17:26-06:00"
        },
        "A week of news Feb 24, Decatur": {
            "url": "https://www.decaturvote.com/story/weekly-decatur-news-recap/a-week-of-news-feb-24-decatur/",
            "title": "A week of news Feb 24, Decatur",
            "description": "Akorn is ending all U.S. operations, including two Decatur Facilities. Four candidates withdraw from Macon County Races. Early voting begins. City Council op...",
            "photo_url": "https://www.decaturvote.com/files/download/?stored_name=64230a063504aecaace6120101de7b9647c12b98-63f948c7929e3.png",
            "author_name": "Reed Sutman",
            "author_url": "https://www.decaturvote.com/author/reed-sutman/",
            "created_date": "2023-02-24T15:07:38-06:00",
            "updated_date": "2023-02-24T15:31:25-06:00"
        },
        "Jalynn Walker withdraws from School Board Race": {
            "url": "https://www.decaturvote.com/story/jalynn-walker/jalynn-walker-withdraws-from-school-board-race/",
            "title": "Jalynn Walker withdraws from School Board Race",
            "description": "Jalynn Walker believes DPS 61 \\",
            "photo_url": "https://www.decaturvote.com/files/download/?stored_name=440a3ce9543218ec35bf35da0209f3b02610941b-63f8f624c617c.jpg",
            "author_name": "Reed Sutman",
            "author_url": "https://www.decaturvote.com/author/reed-sutman/",
            "created_date": "2023-02-24T09:40:34-06:00",
            "updated_date": "2023-02-24T10:24:08-06:00"
        },
        "Election News Recap for March 3rd": {
            "url": "https://www.decaturvote.com/story/weekly-decatur-news-recap/election-news-recap-for-march-3rd/",
            "title": "Election News Recap for March 3rd",
            "description": "This week's recap just captures election-related news and highlights a couple noteable articles. Comprehensive weekly news recaps will return soon, but right...",
            "photo_url": "https://www.decaturvote.com/files/download/?stored_name=0dd2ce42846eb8c2a4f5f2f8d8d580ee801f001d-64026e9cae5f1.jpg",
            "author_name": "Reed Sutman",
            "author_url": "https://www.decaturvote.com/author/reed-sutman/",
            "created_date": "2023-03-03T13:20:03-06:00",
            "updated_date": "2023-03-03T14:03:10-06:00"
        },
        "Mark Reynolds focused on math, reading, and science": {
            "url": "https://www.decaturvote.com/story/mark-reynolds/mark-reynolds-focused-on-math-reading-and-science/",
            "title": "Mark Reynolds focused on math, reading, and science",
            "description": "Mark Reynolds is running for School Board because he thinks he can make a bigger impact as an elected official than as a substitue teacher in the schools, ac...",
            "photo_url": "https://www.decaturvote.com/files/download/?stored_name=bf66ffd2bbe268cb84a4125d18674f3fdc4e7229-64026ca0c13a0.jpg",
            "author_name": "Reed Sutman",
            "author_url": "https://www.decaturvote.com/author/reed-sutman/",
            "created_date": "2023-03-03T11:21:28-06:00",
            "updated_date": "2023-03-03T13:54:43-06:00"
        },
        "Misty Fronk concerned about student proficiency rates": {
            "url": "https://www.decaturvote.com/story/misty-fronk/misty-fronk-concerned-about-student-proficiency-rates/",
            "title": "Misty Fronk concerned about student proficiency rates",
            "description": "Misty Fronk is running for Decatur School Board because she went to an event hosted by the Illinois Family Institute (IFI) and was told that Illinois schools...",
            "photo_url": "https://www.decaturvote.com/files/download/?stored_name=9a84b5838dc167326ff781f50fdcf0809ada14fa-6407a058ba208.jpeg",
            "author_name": "Reed Sutman",
            "author_url": "https://www.decaturvote.com/author/reed-sutman/",
            "created_date": "2023-03-03T09:27:08-06:00",
            "updated_date": "2023-03-07T12:36:44-06:00"
        },
        "Read DPS Staff's email, pleading for drastic safety measures": {
            "url": "https://www.decaturvote.com/article/read-dps-staffs-email-pleading-for-drastic-safety-measures/",
            "title": "Read DPS Staff's email, pleading for drastic safety measures",
            "description": "In a video clip of the February 14th School Board meeting, DPS Superintendent Dr. Rochelle Clark said she had received a \\",
            "photo_url": "https://www.decaturvote.com/files/download/?stored_name=b9427926e07cf36adc8860c541bcc44a48b38a7e-6407bdbc371c0.jpeg",
            "author_name": "Reed Sutman",
            "author_url": "https://www.decaturvote.com/author/reed-sutman/",
            "created_date": "2023-03-07T14:38:37-06:00",
            "updated_date": "2023-03-07T14:42:47-06:00"
        },
        "Lisa Gregory's Platform for 2023 City Council": {
            "url": "https://www.decaturvote.com/story/lisa-gregory/lisa-gregorys-platform-for-2023-city-council/",
            "title": "Lisa Gregory's Platform for 2023 City Council",
            "description": "\\",
            "photo_url": "https://www.decaturvote.com/files/download/?stored_name=2b6eae0b5154bfa06310a7f77bb749491e8812ea-6407b4dfa05d4.jpg",
            "author_name": "Reed Sutman",
            "author_url": "https://www.decaturvote.com/author/reed-sutman/",
            "created_date": "2023-03-07T13:56:31-06:00",
            "updated_date": "2023-03-07T14:04:18-06:00"
        },
        "Schools need to succeed for everything else to succeed Hannah Wolfe": {
            "url": "https://www.decaturvote.com/story/hannah-wolfe/schools-need-to-succeed-for-everything-else-to-succeed-hannah-wolfe/",
            "title": "Schools need to succeed for everything else to succeed Hannah Wolfe",
            "description": "Hannah Wolfe says \\",
            "photo_url": "https://www.decaturvote.com/files/download/?stored_name=1952f83af4bac3c5bd63086eaf9043681d39e282-640a5d344e08e.jpg",
            "author_name": "Reed Sutman",
            "author_url": "https://www.decaturvote.com/author/reed-sutman/",
            "created_date": "2023-03-09T14:27:05-06:00",
            "updated_date": "2023-03-09T14:27:05-06:00"
        },
        "You've gotta have heart or you can't do your job right Pat McDaniel": {
            "url": "https://www.decaturvote.com/story/pat-mcdaniel/youve-gotta-have-heart-or-you-cant-do-your-job-right-pat-mcdaniel/",
            "title": "You've gotta have heart or you can't do your job right Pat McDaniel",
            "description": "Pat McDaniel's says he's a good pick for City Council because he has previous experience on council, was born and raised in Decatur, is on a couple boards, a...",
            "photo_url": "https://www.decaturvote.com/files/download/?stored_name=ed6e47564e32c109bfa4f378a215b82c3048822e-640a4e84d463f.jpg",
            "author_name": "Reed Sutman",
            "author_url": "https://www.decaturvote.com/author/reed-sutman/",
            "created_date": "2023-03-09T13:16:14-06:00",
            "updated_date": "2023-03-09T13:25:08-06:00"
        },
        "Meet the Candidates City Council Forum": {
            "url": "https://www.decaturvote.com/article/meet-the-candidates-city-council-forum/",
            "title": "Meet the Candidates City Council Forum",
            "description": "Coalition of Neighborhood Organizations (CONO) hosted a Candidate forum for City Council and School Board candidates on March 8th, 2023. Each candidate was a...",
            "photo_url": "https://www.decaturvote.com/files/download/?stored_name=c6eeb2b7728b31e3528b12c08343eb8706674744-640bca734612e.jpeg",
            "author_name": "Reed Sutman",
            "author_url": "https://www.decaturvote.com/author/reed-sutman/",
            "created_date": "2023-03-10T10:26:03-06:00",
            "updated_date": "2023-03-10T16:33:50-06:00"
        },
        "Student learning, School Safety, LGBTQ issues DPS61 Candidates Respond": {
            "url": "https://www.decaturvote.com/article/student-learning-school-safety-lgbtq-issues-dps61-candidates-respond/",
            "title": "Student learning, School Safety, LGBTQ issues DPS61 Candidates Respond",
            "description": "Six School Board candidates attended the Coalition of Neighborhood Organization's (CONO) candidate forum and answered questions about student learning, schoo...",
            "photo_url": "https://www.decaturvote.com/files/download/?stored_name=f22f64159d849d7865ef17496e331bda9d886f59-6414e30585519.jpeg",
            "author_name": "Reed Sutman",
            "author_url": "https://www.decaturvote.com/author/reed-sutman/",
            "created_date": "2023-03-14T13:58:40-05:00",
            "updated_date": "2023-03-17T15:00:39-05:00"
        },
        "Mayore Wolfe intentionally avoids Open Meetings Act": {
            "url": "https://www.decaturvote.com/story/cannabis-dispensaries-in-decatur/mayore-wolfe-intentionally-avoids-open-meetings-act/",
            "title": "Mayore Wolfe intentionally avoids Open Meetings Act",
            "description": "Mayor Julie Moore Wolfe and County Board Chairman Kevin Greenfield organized a meeting in September 2019 to discuss Cannabis with mayors across the county an...",
            "photo_url": "https://www.decaturvote.com/files/download/?stored_name=69aa6f97c3341ebfdf3f4007a5df14e602d43bc2-6410973c60008.jpeg",
            "author_name": "Reed Sutman",
            "author_url": "https://www.decaturvote.com/author/reed-sutman/",
            "created_date": "2023-03-14T08:59:10-05:00",
            "updated_date": "2023-03-14T08:59:10-05:00"
        },
        "Who is Valdimir Talley?": {
            "url": "https://www.decaturvote.com/story/valdimir-talley/who-is-valdimir-talley/",
            "title": "Who is Valdimir Talley?",
            "description": "Valdimir Talley is the safety & security administrator for DPS61, hired in 2023. He ran for Republican Sheriff in 2010.",
            "photo_url": null,
            "author_name": "Reed Sutman",
            "author_url": "https://www.decaturvote.com/author/reed-sutman/",
            "created_date": "2023-03-16T12:10:52-05:00",
            "updated_date": "2023-03-16T12:10:52-05:00"
        },
        "Response to Mark Reynolds about LGBTQ, Sexuality comment": {
            "url": "https://www.decaturvote.com/article/response-to-mark-reynolds-about-lgbtq-sexuality-comment/",
            "title": "Response to Mark Reynolds about LGBTQ, Sexuality comment",
            "description": "I covered Mark Reynolds's statement in the CONO School Board Forum, and am sharing my opinion regarding his statement here.",
            "photo_url": null,
            "author_name": "Reed Sutman",
            "author_url": "https://www.decaturvote.com/author/reed-sutman/",
            "created_date": "2023-03-18T11:15:59-05:00",
            "updated_date": "2023-03-18T11:15:59-05:00"
        },
        "Central IL PAC endorsements for 2023": {
            "url": "https://www.decaturvote.com/story/2023-consolidated-municipal-election/central-il-pac-endorsements-for-2023/",
            "title": "Central IL PAC endorsements for 2023",
            "description": "Central Illinois PAC's purpose is to \\",
            "photo_url": null,
            "author_name": "Reed Sutman",
            "author_url": "https://www.decaturvote.com/author/reed-sutman/",
            "created_date": "2023-03-22T10:47:11-05:00",
            "updated_date": "2023-03-22T11:26:55-05:00"
        },
        "Decatur Endorsements from Macon County Democrats": {
            "url": "https://www.decaturvote.com/story/2023-consolidated-municipal-election/decatur-endorsements-from-macon-county-democrats/",
            "title": "Decatur Endorsements from Macon County Democrats",
            "description": "Macon County Democrats have endorsed several candidates. Macon County Republicans are not endorsing any candidates for Decatur's 2023 election. Bruce Pillsbu...",
            "photo_url": null,
            "author_name": "Reed Sutman",
            "author_url": "https://www.decaturvote.com/author/reed-sutman/",
            "created_date": "2023-03-22T10:05:08-05:00",
            "updated_date": "2023-03-22T10:05:08-05:00"
        },
        "Decatur Labor & Trades Assembly Endorsements": {
            "url": "https://www.decaturvote.com/article/decatur-labor-trades-assembly-endorsements/",
            "title": "Decatur Labor & Trades Assembly Endorsements",
            "description": "Decatur Labor & Trades Assembly AFL-CIO supports the following candidates for the 2023 Decatur Election:",
            "photo_url": "https://www.decaturvote.com/files/download/?stored_name=fb0451c24c9b552c12f00daa44504e6509f80376-641b2eb4b5e31.jpg",
            "author_name": "Reed Sutman",
            "author_url": "https://www.decaturvote.com/author/reed-sutman/",
            "created_date": "2023-03-22T09:34:51-05:00",
            "updated_date": "2023-03-22T09:34:51-05:00"
        },
        "Decatur Vote Weekly March 24th": {
            "url": "https://www.decaturvote.com/story/decatur-vote/decatur-vote-weekly-march-24th/",
            "title": "Decatur Vote Weekly March 24th",
            "description": "This week we updated several candidate platforms, published endorsements from three organizations, made progress on our comprehensive Voter's Guide, and a fe...",
            "photo_url": "https://www.decaturvote.com/files/download/?stored_name=3ad6d7cdf1dc81ebdd5154eeb51008d00b7fea8c-641e16229eab5.jpeg",
            "author_name": "Reed Sutman",
            "author_url": "https://www.decaturvote.com/author/reed-sutman/",
            "created_date": "2023-03-24T14:19:05-05:00",
            "updated_date": "2023-03-24T14:29:08-05:00"
        },
        "Write-in Candidates FAQ": {
            "url": "https://www.decaturvote.com/story/2023-consolidated-municipal-election/write-in-candidates-faq/",
            "title": "Write-in Candidates FAQ",
            "description": "Some offices have a write-in candidate, which will require you to BOTH fill in the bubble AND write the candidate's name correctly. While you should write th...",
            "photo_url": "https://www.decaturvote.com/files/download/?stored_name=9df9dd42eb4f856b2fcc04ba928419c2035809df-641dd9a19cefe.jpg",
            "author_name": "Reed Sutman",
            "author_url": "https://www.decaturvote.com/author/reed-sutman/",
            "created_date": "2023-03-24T10:15:14-05:00",
            "updated_date": "2023-03-24T10:15:14-05:00"
        },
        "Will Wetzel 2023 Platform Summary": {
            "url": "https://www.decaturvote.com/story/will-wetzel/will-wetzel-2023-platform-summary/",
            "title": "Will Wetzel 2023 Platform Summary",
            "description": "This is our previous platform summary for Will Wetzel, which was posted on his 2023 candidate page on February 14th, 2023.",
            "photo_url": null,
            "author_name": "Reed Sutman",
            "author_url": "https://www.decaturvote.com/author/reed-sutman/",
            "created_date": "2023-03-28T12:47:44-05:00",
            "updated_date": "2023-03-28T12:47:56-05:00"
        },
        "Decatur Illinois Voter's Guide 2023": {
            "url": "https://www.decaturvote.com/story/2023-consolidated-municipal-election/decatur-illinois-voters-guide-2023/",
            "title": "Decatur Illinois Voter's Guide 2023",
            "description": "City Council, School Board, and the referendum to eliminate the County Auditor are all up for debate in the April 4th, 2023 election in Decatur, Illinois. Ri...",
            "photo_url": "https://www.decaturvote.com/files/download/?stored_name=0daf1777069282b096660824e424d6abeaf8358b-6425ef542a963.jpg",
            "author_name": "Reed Sutman",
            "author_url": "https://www.decaturvote.com/author/reed-sutman/",
            "created_date": "2023-03-30T13:21:50-05:00",
            "updated_date": "2023-03-30T13:21:50-05:00"
        },
        "Decatur Vote 2023 Review": {
            "url": "https://www.decaturvote.com/story/decatur-vote/decatur-vote-2023-review/",
            "title": "Decatur Vote 2023 Review",
            "description": "I've covered two elections for Decatur Vote. DV has had 59 new page likes on Facebook since January 3rd, bringing us to 111 followers. We have two monthly pa...",
            "photo_url": "https://www.decaturvote.com/files/download/?stored_name=eb605d5f6b0c0675b4d9149462ed167e0e88191c-642c8f5293c95.png",
            "author_name": "Reed Sutman",
            "author_url": "https://www.decaturvote.com/author/reed-sutman/",
            "created_date": "2023-04-04T13:58:10-05:00",
            "updated_date": "2023-04-04T13:58:10-05:00"
        },
        "2023 Election Results Preliminary": {
            "url": "https://www.decaturvote.com/story/2023-consolidated-municipal-election/2023-election-results-preliminary/",
            "title": "2023 Election Results Preliminary",
            "description": "City Council and School Board elections are over, but results could change because over 1500 mail-in-ballots were outstanding at noon on election day. Ballot...",
            "photo_url": null,
            "author_name": "Reed Sutman",
            "author_url": "https://www.decaturvote.com/author/reed-sutman/",
            "created_date": "2023-04-05T09:48:44-05:00",
            "updated_date": "2023-04-19T12:10:30-05:00"
        },
        "Decatur Working on Walkability Along 51 North": {
            "url": "https://www.decaturvote.com/story/decatur-city-council/decatur-working-on-walkability-along-51-north/",
            "title": "Decatur Working on Walkability Along 51 North",
            "description": "The City of Decatur and Illinois Department of Transportation hosted a community forum on March 30th for Decaturites to learn about and make suggestions for ...",
            "photo_url": "https://www.decaturvote.com/files/download/?stored_name=46e1bcd7028795a5f602fc4d6c179db9c41f9f6c-642eff0a413b2.png",
            "author_name": "Reed Sutman",
            "author_url": "https://www.decaturvote.com/author/reed-sutman/",
            "created_date": "2023-04-06T10:19:19-05:00",
            "updated_date": "2023-04-06T10:22:36-05:00"
        },
        "2023 Election Results Q A": {
            "url": "https://www.decaturvote.com/story/2023-consolidated-municipal-election/2023-election-results-qa/",
            "title": "2023 Election Results Q A",
            "description": "I contacted Josh Tanner on April 5th, with some questions about the results. He replied at 4:44pm the same day. Also, see Election Results",
            "photo_url": "https://www.decaturvote.com/files/download/?stored_name=371f6677bc3871971bc93630afe8c639b72f866b-642ef0d9bd499.jpeg",
            "author_name": "Reed Sutman",
            "author_url": "https://www.decaturvote.com/author/reed-sutman/",
            "created_date": "2023-04-06T08:52:34-05:00",
            "updated_date": "2023-04-06T09:19:03-05:00"
        },
        "Sponsor Decatur Vote": {
            "url": "https://www.decaturvote.com/story/decatur-vote/sponsor-decatur-vote/",
            "title": "Sponsor Decatur Vote",
            "description": "Decatur Vote's only source of revenue is sponsorship. Our primary model is small monthly contributions from our readers, typically at $10 per month. We also ...",
            "photo_url": null,
            "author_name": "Reed Sutman",
            "author_url": "https://www.decaturvote.com/author/reed-sutman/",
            "created_date": "2023-04-11T12:47:04-05:00",
            "updated_date": "2023-04-11T12:47:04-05:00"
        },
        "About Decatur Vote": {
            "url": "https://www.decaturvote.com/story/decatur-vote/about-decatur-vote/",
            "title": "About Decatur Vote",
            "description": "Decatur Vote is a locally-minded news organization, focused on elections, government, local issues, civic and charitable organizations, and local leaders. We...",
            "photo_url": "https://www.decaturvote.com/files/download/?stored_name=7a175f36b8e134757d7ed2fc25b8356143fcfb85-6435b1166c69a.jpeg",
            "author_name": "Reed Sutman",
            "author_url": "https://www.decaturvote.com/author/reed-sutman/",
            "created_date": "2023-04-11T12:12:37-05:00",
            "updated_date": "2023-04-11T12:12:37-05:00"
        },
        "Will Wetzel's AFSCME endorsement": {
            "url": "https://www.decaturvote.com/story/will-wetzel/will-wetzels-afscme-endorsement/",
            "title": "Will Wetzel's AFSCME endorsement",
            "description": "Will Wetzel shared his endorsements and listed AFSCME.",
            "photo_url": null,
            "author_name": "Reed Sutman",
            "author_url": "https://www.decaturvote.com/author/reed-sutman/",
            "created_date": "2023-04-11T08:30:34-05:00",
            "updated_date": "2023-04-11T12:12:50-05:00"
        },
        "Did AFSCME endorse Will Wetzel for School Board?": {
            "url": "https://www.decaturvote.com/story/will-wetzel/did-afscme-endorse-will-wetzel-for-school-board/",
            "title": "Did AFSCME endorse Will Wetzel for School Board?",
            "description": "Will Wetzel for Decatur Public School Board stated in a March 6th Facebook Post that he was \\",
            "photo_url": "https://www.decaturvote.com/files/download/?stored_name=edf13b8e558aa2d458ed2e28aaaa41071258d579-6439aaa5819ca.jpg",
            "author_name": "Reed Sutman",
            "author_url": "https://www.decaturvote.com/author/reed-sutman/",
            "created_date": "2023-04-14T11:48:20-05:00",
            "updated_date": "2023-04-14T12:34:09-05:00"
        },
        "2023 Election Results": {
            "url": "https://www.decaturvote.com/story/2023-consolidated-municipal-election/2023-election-results/",
            "title": "2023 Election Results",
            "description": "The final results are in for Macon County. Only 64 mail-in-ballots were returned after election day, and no Decatur results changed from the preliminary resu...",
            "photo_url": null,
            "author_name": "Reed Sutman",
            "author_url": "https://www.decaturvote.com/author/reed-sutman/",
            "created_date": "2023-04-19T12:08:46-05:00",
            "updated_date": "2023-04-19T12:10:36-05:00"
        },
        "Our free & open source software": {
            "url": "https://www.decaturvote.com/story/decatur-vote/our-free-open-source-software/",
            "title": "Our free & open source software",
            "description": "Free Open Source Software (FOSS) is software that can be used by the public for free. \\",
            "photo_url": null,
            "author_name": "Reed Sutman",
            "author_url": "https://www.decaturvote.com/author/reed-sutman/",
            "created_date": "2023-05-16T11:24:11-05:00",
            "updated_date": "2023-05-16T11:32:10-05:00"
        },
        "Summary of Dennis Structural Issues": {
            "url": "https://www.decaturvote.com/story/dennis-schools-structural-issues/summary-of-dennis-structural-issues/",
            "title": "Summary of Dennis Structural Issues",
            "description": "Dennis Lab/Mosaic Campus and former French Academy/Kaleidoscope Campus were inspected on May 30th, 2023, the last day of school. Both buildings were closed t...",
            "photo_url": "https://www.decaturvote.com/files/download/?stored_name=b67731c883c886917e608e9f25a244a4f9571d2e-649231e96852e.jpg",
            "author_name": "Reed Sutman",
            "author_url": "https://www.decaturvote.com/author/reed-sutman/",
            "created_date": "2023-06-20T16:27:51-05:00",
            "updated_date": "2023-07-26T09:43:58-05:00"
        },
        "DPS61 Misled You and Avoided Questions": {
            "url": "https://www.decaturvote.com/story/dennis-schools-structural-issues/dps61-misled-you-and-avoided-questions/",
            "title": "DPS61 Misled You and Avoided Questions",
            "description": "Dennis Lab's north staircase is structurally damaged and separating from the building. Part of former French Academy's exterior walls and roof are deteriorat...",
            "photo_url": "https://www.decaturvote.com/files/download/?stored_name=b67731c883c886917e608e9f25a244a4f9571d2e-649231e96852e.jpg",
            "author_name": "Reed Sutman",
            "author_url": "https://www.decaturvote.com/author/reed-sutman/",
            "created_date": "2023-06-20T16:10:38-05:00",
            "updated_date": "2023-06-20T16:23:14-05:00"
        },
        "Ideas for Seeking DPS61 Transparency": {
            "url": "https://www.decaturvote.com/story/dennis-schools-structural-issues/ideas-for-seeking-dps61-transparency/",
            "title": "Ideas for Seeking DPS61 Transparency",
            "description": "These are my personal ideas for how DPS61 transparency can be ensured and improved, both in regard to Dennis Lab's Structural Issues and the District as a wh...",
            "photo_url": null,
            "author_name": "Reed Sutman",
            "author_url": "https://www.decaturvote.com/author/reed-sutman/",
            "created_date": "2023-06-20T15:54:21-05:00",
            "updated_date": "2023-06-23T10:14:27-05:00"
        },
        "June 27th Board of Education Speech by Reed Sutman": {
            "url": "https://www.decaturvote.com/story/dennis-schools-structural-issues/june-27th-board-of-education-speech-by-reed-sutman/",
            "title": "June 27th Board of Education Speech by Reed Sutman",
            "description": "I\u00e2\u0080\u0099m Reed Sutman with Decatur Vote. For a copy of this speech see [that table] or DecaturVote.com",
            "photo_url": null,
            "author_name": "Reed Sutman",
            "author_url": "https://www.decaturvote.com/author/reed-sutman/",
            "created_date": "2023-06-27T15:01:28-05:00",
            "updated_date": "2023-06-27T15:02:05-05:00"
        },
        "District continues to deny access to interviews about Dennis": {
            "url": "https://www.decaturvote.com/story/dennis-schools-structural-issues/district-continues-to-deny-access-to-interviews-about-dennis/",
            "title": "District continues to deny access to interviews about Dennis",
            "description": "I have requested interviews with District officials multiple times, regarding Dennis Schools, and have been repeatedly denied access.",
            "photo_url": "https://www.decaturvote.com/files/download/?stored_name=a445b62dde5418ef747bb632a57c0cb0db5530f8-649b5377c0d91.jpg",
            "author_name": "Reed Sutman",
            "author_url": "https://www.decaturvote.com/author/reed-sutman/",
            "created_date": "2023-06-27T14:31:03-05:00",
            "updated_date": "2023-06-27T14:31:03-05:00"
        },
        "16 Modular Classrooms for Dennis K-8, up to $2 million": {
            "url": "https://www.decaturvote.com/story/dennis-schools-structural-issues/16-modular-classrooms-for-dennis-k-8-up-to-2-million/",
            "title": "16 Modular Classrooms for Dennis K-8, up to $2 million",
            "description": "A Board of Education Meeting is scheduled for tonight, June 27th, 2023, at 6:30pm at the Keil Administration Building, 101 W. Cerro Gordo Street.",
            "photo_url": "https://www.decaturvote.com/files/download/?stored_name=e11dc807bdbedfd009ad762457f20205a41a05a0-649b0b0301704.png",
            "author_name": "Reed Sutman",
            "author_url": "https://www.decaturvote.com/author/reed-sutman/",
            "created_date": "2023-06-27T09:14:20-05:00",
            "updated_date": "2023-06-27T09:15:07-05:00"
        },
        "July 11th Meeting at MacArthur DPS61": {
            "url": "https://www.decaturvote.com/story/dennis-schools-structural-issues/july-11th-meeting-at-macarthur-dps61/",
            "title": "July 11th Meeting at MacArthur DPS61",
            "description": "Decatur Public School District 61's next Board of Education Meeting will be held on Tuesday July 11th, 6:30pm, at MacArthur High School, 1499 W. Grand Avenue...",
            "photo_url": "https://www.decaturvote.com/files/download/?stored_name=5a876cb804fc5236efa155b16477c2a096a3b85f-64a8784fe5e99.png",
            "author_name": "Reed Sutman",
            "author_url": "https://www.decaturvote.com/author/reed-sutman/",
            "created_date": "2023-07-07T13:25:53-05:00",
            "updated_date": "2023-07-07T13:41:19-05:00"
        },
        "The New Dennis Garfield Plan Concerns remain": {
            "url": "https://www.decaturvote.com/story/dennis-schools-structural-issues/the-new-dennisgarfield-plan-concerns-remain/",
            "title": "The New Dennis Garfield Plan Concerns remain",
            "description": "Last night, the Board of Education and the public received an update about the plans for Dennis and Garfield students for the 2023-2024 school year.",
            "photo_url": "https://www.decaturvote.com/files/download/?stored_name=3a70de564e61b5b98211a0d53dc9927a48d53238-64aef6aa8b2a4.jpg",
            "author_name": "Reed Sutman",
            "author_url": "https://www.decaturvote.com/author/reed-sutman/",
            "created_date": "2023-07-12T11:53:32-05:00",
            "updated_date": "2023-07-12T11:53:47-05:00"
        },
        "Questions for Dr Clark": {
            "url": "https://www.decaturvote.com/story/dennis-schools-structural-issues/questions-for-dr-clark/",
            "title": "Questions for Dr Clark",
            "description": "After over a month of trying to get questions answered and trying to secure an interview with Dr. Clark, I got a couple minutes of her time at the July 11th ...",
            "photo_url": "https://www.decaturvote.com/files/download/?stored_name=24e3efc18fce1fdb51155de6f0c0d03d72a3f5ee-64b046e27407d.jpg",
            "author_name": "Reed Sutman",
            "author_url": "https://www.decaturvote.com/author/reed-sutman/",
            "created_date": "2023-07-13T11:44:28-05:00",
            "updated_date": "2023-07-13T11:48:04-05:00"
        },
        "June 13th Interviews About Transparency DPS61": {
            "url": "https://www.decaturvote.com/story/dennis-schools-structural-issues/june-13th-interviews-about-transparency-dps61/",
            "title": "June 13th Interviews About Transparency DPS61",
            "description": "After Dennis Closures were announced, I attended the June 13th Board of Education Meeting to hear any updates from the District and interview District offici...",
            "photo_url": "https://www.decaturvote.com/files/download/?stored_name=ac7e4a4dd8cfc73524fa6715098d72b61531f772-64b1c78211ed7.jpg",
            "author_name": "Reed Sutman",
            "author_url": "https://www.decaturvote.com/author/reed-sutman/",
            "created_date": "2023-07-14T15:09:10-05:00",
            "updated_date": "2023-07-14T15:09:10-05:00"
        },
        "Requesting Review of a DPS61 FOIA Response": {
            "url": "https://www.decaturvote.com/story/dennis-schools-structural-issues/requesting-review-of-a-dps61-foia-response/",
            "title": "Requesting Review of a DPS61 FOIA Response",
            "description": "On June 23rd, 2023 I sent a FOIA request to Decatur Public Schools District 61. On July 10th, I received an incomplete response.",
            "photo_url": "https://www.decaturvote.com/files/download/?stored_name=5e40f3d8fad7b36e14f4f87a81eb98ff8ae31f87-64b19934ec241.png",
            "author_name": "Reed Sutman",
            "author_url": "https://www.decaturvote.com/author/reed-sutman/",
            "created_date": "2023-07-14T10:58:26-05:00",
            "updated_date": "2023-07-14T11:51:36-05:00"
        },
        "Jay Scott Investigation 2016": {
            "url": "https://www.decaturvote.com/article/jay-scott-investigation-2016/",
            "title": "Jay Scott Investigation 2016",
            "description": "This is a reference page for information regarding the investigation of misconduct allegations against Jay Scott (Democrat), former Macon County State's Atto...",
            "photo_url": null,
            "author_name": "Reed Sutman",
            "author_url": "https://www.decaturvote.com/author/reed-sutman/",
            "created_date": "2022-08-12T09:59:36-05:00",
            "updated_date": "2023-01-13T13:43:05-06:00"
        },
        "Illinois Crime Act 2022": {
            "url": "https://www.decaturvote.com/article/illinois-crime-act-2022/",
            "title": "Illinois Crime Act 2022",
            "description": "This is just a collection of some links to more information about this bill. At this time, I do not plan to write a summary or to report on this directly. I ...",
            "photo_url": null,
            "author_name": "Reed Sutman",
            "author_url": "https://www.decaturvote.com/author/reed-sutman/",
            "created_date": "2022-08-12T09:02:08-05:00",
            "updated_date": "2023-01-13T13:43:05-06:00"
        },
        "Macon County Health Board is Unreachable": {
            "url": "https://www.decaturvote.com/article/macon-county-health-board-is-unreachable/",
            "title": "Macon County Health Board is Unreachable",
            "description": "On January 18, 2022, WAND Reported \\",
            "photo_url": "https://www.decaturvote.com/files/download/?stored_name=5c52a61a2f5c3f4a687ee18cbdff1e8e23f4a7ac-6352fe00b3483.png",
            "author_name": "Reed Sutman",
            "author_url": "https://www.decaturvote.com/author/reed-sutman/",
            "created_date": "2022-10-21T13:17:30-05:00",
            "updated_date": "2023-01-13T13:43:05-06:00"
        },
        "Police killed Jamontey Neal What happened?": {
            "url": "https://www.decaturvote.com/article/police-killed-jamontey-neal-what-happened/",
            "title": "Police killed Jamontey Neal What happened?",
            "description": "October 12th, 12:25am red and blue lights flash behind Jamontey Neal. He pulls over. One cop approaches on each side, flashlights out. \\",
            "photo_url": "https://www.decaturvote.com/files/download/?stored_name=7cec1a6bd68beab3f58a4c75bc6cff8c31747670-636589ce933df.jpeg",
            "author_name": "Reed Sutman",
            "author_url": "https://www.decaturvote.com/author/reed-sutman/",
            "created_date": "2022-11-04T14:53:18-05:00",
            "updated_date": "2022-11-04T15:16:35-05:00"
        },
        "2022 Election Results for Macon County Illinois": {
            "url": "https://www.decaturvote.com/article/2022-election-results-for-macon-county-illinois/",
            "title": "2022 Election Results for Macon County Illinois",
            "description": "Macon County is almost entirely red this year. Democrats won 3 uncontested County Board seats in District 1, while Republicans won all four other districts, ...",
            "photo_url": "https://www.decaturvote.com/files/download/?stored_name=0ee1cbdeda51a220e28e64b3c1ade27b56a1d04e-636edf4f3fd2b.jpg",
            "author_name": "Reed Sutman",
            "author_url": "https://www.decaturvote.com/author/reed-sutman/",
            "created_date": "2022-11-09T08:06:00-06:00",
            "updated_date": "2023-01-13T13:43:05-06:00"
        },
        "State of Democracy, 2022 Macon County": {
            "url": "https://www.decaturvote.com/article/state-of-democracy-2022-macon-county/",
            "title": "State of Democracy, 2022 Macon County",
            "description": "Elections are finally over, and Macon County results are in. Local Republicans have majority support, though Democrat voters are under represented due to Rep...",
            "photo_url": "https://www.decaturvote.com/files/download/?stored_name=26c6cb270e7ba2ca39bf775967e72dfbcaf9e38b-636ee064d247b.jpg",
            "author_name": "Reed Sutman",
            "author_url": "https://www.decaturvote.com/author/reed-sutman/",
            "created_date": "2022-11-11T15:15:02-06:00",
            "updated_date": "2022-11-15T10:18:14-06:00"
        },
        "2022 Election Winners": {
            "url": "https://www.decaturvote.com/article/2022-election-winners/",
            "title": "2022 Election Winners",
            "description": "Simple list of candidates who won in Macon County. Ballot Measures too. Overview of party results for the state.",
            "photo_url": null,
            "author_name": "Reed Sutman",
            "author_url": "https://www.decaturvote.com/author/reed-sutman/",
            "created_date": "2022-11-15T11:22:55-06:00",
            "updated_date": "2023-01-13T13:43:05-06:00"
        },
        "Status Report, Updates about Decatur Vote": {
            "url": "https://www.decaturvote.com/story/decatur-vote/status-report-updates-about-decatur-vote/",
            "title": "Status Report, Updates about Decatur Vote",
            "description": "Decatur Vote launched in July 2022 after 9 months of development. I conducted 10 interviews and researched an additional 3 candidates online for 2022. I got ...",
            "photo_url": "https://www.decaturvote.com/files/download/?stored_name=cbfadc79e14c0e70574006d2a1d3e095efd55555-6376834097cf9.jpg",
            "author_name": "Reed Sutman",
            "author_url": "https://www.decaturvote.com/author/reed-sutman/",
            "created_date": "2022-11-17T10:22:07-06:00",
            "updated_date": "2023-01-13T15:26:57-06:00"
        },
        "Returning in 2023": {
            "url": "https://www.decaturvote.com/article/returning-in-2023/",
            "title": "Returning in 2023",
            "description": "Many updates to the website are being worked on for the remainder of 2022, in the hopes of bringing better reporting and more local information to you in 2023.",
            "photo_url": "https://www.decaturvote.com/files/download/?stored_name=1f12608cc4d09922438300addacb52386c05b764-637d0172a9bdf.jpeg",
            "author_name": "Reed Sutman",
            "author_url": "https://www.decaturvote.com/author/reed-sutman/",
            "created_date": "2022-11-22T09:05:54-06:00",
            "updated_date": "2023-01-13T13:43:05-06:00"
        },
        "What is DecaturVote com?": {
            "url": "https://www.decaturvote.com/story/decatur-vote/what-is-decaturvotecom/",
            "title": "What is DecaturVote com?",
            "description": "DecaturVote.com is a local political news website covering primarily Decatur Illinois Elections, but also providing some coverage of other elections in Macon...",
            "photo_url": null,
            "author_name": "Reed Sutman",
            "author_url": "https://www.decaturvote.com/author/reed-sutman/",
            "created_date": "2023-01-13T15:29:00-06:00",
            "updated_date": "2023-01-13T15:29:00-06:00"
        },
        "Vote By Mail": {
            "url": "https://www.decaturvote.com/story/2023-consolidated-municipal-election/vote-by-mail/",
            "title": "Vote By Mail",
            "description": "To Vote by Mail, you must request your ballot, fill it out, then mail it to or drop it off at the County Building.",
            "photo_url": "https://www.decaturvote.com/files/download/?stored_name=b1cf803e7a887756dfa03424d14c531ad64a8227-63f536264b146.jpg",
            "author_name": "Reed Sutman",
            "author_url": "https://www.decaturvote.com/author/reed-sutman/",
            "created_date": "2023-01-13T15:15:34-06:00",
            "updated_date": "2023-02-21T13:28:15-06:00"
        },
        "2023 Election Resources": {
            "url": "https://www.decaturvote.com/story/2023-consolidated-municipal-election/2023-election-resources/",
            "title": "2023 Election Resources",
            "description": "This page coming soon...",
            "photo_url": null,
            "author_name": "Reed Sutman",
            "author_url": "https://www.decaturvote.com/author/reed-sutman/",
            "created_date": "2023-01-13T15:15:09-06:00",
            "updated_date": "2023-01-13T15:16:06-06:00"
        },
        "Early Voting": {
            "url": "https://www.decaturvote.com/story/2023-consolidated-municipal-election/early-voting/",
            "title": "Early Voting",
            "description": "Election day is April 4th, 2023, and you can vote early between February 23rd and April 3rd at the County Building, at 141 S Main St, room 119.",
            "photo_url": "https://www.decaturvote.com/files/download/?stored_name=0e39d4b610b61fa23a3ea16fd4145e518ea62239-63f530adb17cd.jpeg",
            "author_name": "Reed Sutman",
            "author_url": "https://www.decaturvote.com/author/reed-sutman/",
            "created_date": "2023-01-13T14:53:37-06:00",
            "updated_date": "2023-02-21T12:59:28-06:00"
        },
        "Polling Places": {
            "url": "https://www.decaturvote.com/story/2023-consolidated-municipal-election/polling-places/",
            "title": "Polling Places",
            "description": "Your polling place is where you go to cast your ballot on election day. Your polling place is listed on both your Vote By Mail application and your Voter Inf...",
            "photo_url": "https://www.decaturvote.com/files/download/?stored_name=8527581ba10f03d87fb85da3be25a51626b164e2-63ee727085eb5.jpg",
            "author_name": "Reed Sutman",
            "author_url": "https://www.decaturvote.com/author/reed-sutman/",
            "created_date": "2023-01-13T14:49:09-06:00",
            "updated_date": "2023-02-16T10:13:55-06:00"
        },
        "Register To Vote": {
            "url": "https://www.decaturvote.com/story/2023-consolidated-municipal-election/register-to-vote/",
            "title": "Register To Vote",
            "description": "Illinois offers grace period registration, which allows you to register to vote during early voting, and even on election day prior to casting your ballot.",
            "photo_url": "https://www.decaturvote.com/files/download/?stored_name=01e98155f3f8335bb008ef82336b76aa97622937-63c1de95a4201.png",
            "author_name": "Reed Sutman",
            "author_url": "https://www.decaturvote.com/author/reed-sutman/",
            "created_date": "2023-01-13T14:42:27-06:00",
            "updated_date": "2023-01-13T14:43:39-06:00"
        },
        "2023 Election News": {
            "url": "https://www.decaturvote.com/story/2023-consolidated-municipal-election/2023-election-news/",
            "title": "2023 Election News",
            "description": "There is an election on April 4th, 2023 for municipal offices. This includes City Council, School Board, and several other offices.\n    All offices and candidate...",
            "photo_url": null,
            "author_name": "Reed Sutman",
            "author_url": "https://www.decaturvote.com/author/reed-sutman/",
            "created_date": "2023-01-13T14:02:44-06:00",
            "updated_date": "2023-01-13T14:02:44-06:00"
        },
        "Datrice Weathers to bridge disconnect between School Board and community": {
            "url": "https://www.decaturvote.com/story/datrice-weathers/datrice-weathers-to-bridge-disconnect-between-school-board-and-community/",
            "title": "Datrice Weathers to bridge disconnect between School Board and community",
            "description": "Datrice Weathers is a teacher at Hope Academy in Decatur since November 2021, and is running for Decatur School Board for the 2023 term. She has a sociology ...",
            "photo_url": "https://www.decaturvote.com/files/download/?stored_name=e9e5bbe86dc6685b92fb8f27ad97b6fe81ba71a1-63c9e1d5cc8c4.jpg",
            "author_name": "Reed Sutman",
            "author_url": "https://www.decaturvote.com/author/reed-sutman/",
            "created_date": "2023-01-19T16:36:54-06:00",
            "updated_date": "2023-01-19T16:38:26-06:00"
        },
        "Who is Datrice Weathers?": {
            "url": "https://www.decaturvote.com/story/datrice-weathers/who-is-datrice-weathers/",
            "title": "Who is Datrice Weathers?",
            "description": "Datrice Weathers is a teacher at Hope Academy in Decatur and was running for a Decatur School Board position in 2023, before withdrawing in mid-February.",
            "photo_url": "https://www.decaturvote.com/files/download/?stored_name=e9e5bbe86dc6685b92fb8f27ad97b6fe81ba71a1-63c9e1562bc43.jpg",
            "author_name": "Reed Sutman",
            "author_url": "https://www.decaturvote.com/author/reed-sutman/",
            "created_date": "2023-01-19T16:34:06-06:00",
            "updated_date": "2023-01-19T16:34:13-06:00"
        },
        "Dennis Cooper supports revitalization and cannabis dispensaries": {
            "url": "https://www.decaturvote.com/story/dennis-cooper/dennis-cooper-supports-revitalization-and-cannabis-dispensaries/",
            "title": "Dennis Cooper supports revitalization and cannabis dispensaries",
            "description": "Dennis Cooper was appointed to City Council in August 2021 to replace Rodney Walker & says he has enjoyed working with the Council. Until Dr. Dana Ray's appo...",
            "photo_url": "https://www.decaturvote.com/files/download/?stored_name=ae552b7c03905b3c8e0efdf469da70ca5ab28c61-63c9ba93592b7.jpg",
            "author_name": "Reed Sutman",
            "author_url": "https://www.decaturvote.com/author/reed-sutman/",
            "created_date": "2023-01-19T13:56:57-06:00",
            "updated_date": "2023-01-19T13:56:57-06:00"
        },
        "Who is Dennis Cooper?": {
            "url": "https://www.decaturvote.com/story/dennis-cooper/who-is-dennis-cooper/",
            "title": "Who is Dennis Cooper?",
            "description": "Dennis Cooper is an appointed Decatur City Councilman. He is running for re-election for the 2023-2027 City Council term.",
            "photo_url": null,
            "author_name": "Reed Sutman",
            "author_url": "https://www.decaturvote.com/author/reed-sutman/",
            "created_date": "2023-01-19T13:50:59-06:00",
            "updated_date": "2023-01-19T13:50:59-06:00"
        },
        "MLK Day Candidates Meet & Greet": {
            "url": "https://www.decaturvote.com/story/2023-consolidated-municipal-election/mlk-day-candidates-meet-greet/",
            "title": "MLK Day Candidates Meet & Greet",
            "description": "The Metro Decatur Black Chamber of Commerce hosted an MLK day event to meet and greet black candidates at the Lucy Loft, 1165 N. University Ave in Decatur.",
            "photo_url": "https://www.decaturvote.com/files/download/?stored_name=39bf26973b4151aca5b2ca2145334db18d19f52d-63c9a5ddda944.jpg",
            "author_name": "Reed Sutman",
            "author_url": "https://www.decaturvote.com/author/reed-sutman/",
            "created_date": "2023-01-19T12:25:30-06:00",
            "updated_date": "2023-01-19T12:25:30-06:00"
        },
        "What happened this week in Decatur? Jan 20, 2023": {
            "url": "https://www.decaturvote.com/story/weekly-decatur-news-recap/what-happened-this-week-in-decatur-jan-20-2023/",
            "title": "What happened this week in Decatur? Jan 20, 2023",
            "description": "Gun legislation HB5471 passed in Illinois. \\",
            "photo_url": "https://www.decaturvote.com/files/download/?stored_name=057f362d59f787fa25b37683fb76760720ac70ce-63cb384064605.png",
            "author_name": "Reed Sutman",
            "author_url": "https://www.decaturvote.com/author/reed-sutman/",
            "created_date": "2023-01-20T16:02:04-06:00",
            "updated_date": "2023-01-20T16:57:48-06:00"
        },
        "Free Programs for Kids Age 12": {
            "url": "https://www.decaturvote.com/article/free-programs-for-kids-age-12/",
            "title": "Free Programs for Kids Age 12",
            "description": "Skywalker Outreach Services offers three free programs to kids from 5:30pm - 8:30pm on weeknights at 400 E. Eldorado Street.",
            "photo_url": "https://www.decaturvote.com/files/download/?stored_name=7afa169c90393620a6b99cbf6f5145ae439ad5c0-63cb26c0f22fb.jpeg",
            "author_name": "Reed Sutman",
            "author_url": "https://www.decaturvote.com/author/reed-sutman/",
            "created_date": "2023-01-20T12:55:06-06:00",
            "updated_date": "2023-01-20T15:53:44-06:00"
        },
        "Macon County Poll Results website went down": {
            "url": "https://www.decaturvote.com/article/macon-county-poll-results-website-went-down/",
            "title": "Macon County Poll Results website went down",
            "description": "Yesterday, Jan 19, 2023, the Macon County Poll Results Website il-macon.pollresults.net/ was down for maintenance.",
            "photo_url": null,
            "author_name": "Reed Sutman",
            "author_url": "https://www.decaturvote.com/author/reed-sutman/",
            "created_date": "2023-01-20T09:29:45-06:00",
            "updated_date": "2023-01-20T09:29:45-06:00"
        },
        "Who is Will Wetzel?": {
            "url": "https://www.decaturvote.com/story/will-wetzel/who-is-will-wetzel/",
            "title": "Who is Will Wetzel?",
            "description": "Will Wetzel is a candidate for Decatur School Board in 2023. He previously ran a campaign for City Council and lost.",
            "photo_url": null,
            "author_name": "Reed Sutman",
            "author_url": "https://www.decaturvote.com/author/reed-sutman/",
            "created_date": "2023-01-20T09:04:32-06:00",
            "updated_date": "2023-01-20T09:04:32-06:00"
        },
        "Sheriff Jim Root vows not to enforce new gun legislation": {
            "url": "https://www.decaturvote.com/article/sheriff-jim-root-vows-not-to-enforce-new-gun-legislation/",
            "title": "Sheriff Jim Root vows not to enforce new gun legislation",
            "description": "Macon County Sheriff Jim Root shares on Facebook that he will \\",
            "photo_url": "https://www.decaturvote.com/files/download/?stored_name=a6429c712488fb091437da473c3a651947e76708-63c1ebb5bc6f3.png",
            "author_name": "Reed Sutman",
            "author_url": "https://www.decaturvote.com/author/reed-sutman/",
            "created_date": "2023-01-20T08:34:58-06:00",
            "updated_date": "2023-01-20T08:34:58-06:00"
        },
        "Weekly Decatur News Recaps": {
            "url": "https://www.decaturvote.com/story/weekly-decatur-news-recap/weekly-decatur-news-recaps/",
            "title": "Weekly Decatur News Recaps",
            "description": "Every Friday, we'll be reviewing local news outlets for all the most important stories, primarily focused on government, elections, and policy, and writing a...",
            "photo_url": null,
            "author_name": "Reed Sutman",
            "author_url": "https://www.decaturvote.com/author/reed-sutman/",
            "created_date": "2023-01-20T08:14:52-06:00",
            "updated_date": "2023-01-20T08:14:52-06:00"
        },
        "Gina Taylor wants black and brown kids to attend Maroa Forsyth": {
            "url": "https://www.decaturvote.com/story/gina-taylor/gina-taylor-wants-black-and-brown-kids-to-attend-maroa-forsyth/",
            "title": "Gina Taylor wants black and brown kids to attend Maroa Forsyth",
            "description": "\\",
            "photo_url": "https://www.decaturvote.com/files/download/?stored_name=152c97015675dbeef4fd5c1bba3d8303bb6528a8-63d0400d6d024.jpg",
            "author_name": "Reed Sutman",
            "author_url": "https://www.decaturvote.com/author/reed-sutman/",
            "created_date": "2023-01-24T12:34:31-06:00",
            "updated_date": "2023-01-24T13:40:49-06:00"
        },
        "Who is Gina Taylor?": {
            "url": "https://www.decaturvote.com/story/gina-taylor/who-is-gina-taylor/",
            "title": "Who is Gina Taylor?",
            "description": "Gina Taylor is a candidate for Maroa Forsyth School Board for the 2023 election.",
            "photo_url": "https://www.decaturvote.com/files/download/?stored_name=152c97015675dbeef4fd5c1bba3d8303bb6528a8-63d0400d6d024.jpg",
            "author_name": "Reed Sutman",
            "author_url": "https://www.decaturvote.com/author/reed-sutman/",
            "created_date": "2023-01-24T12:32:51-06:00",
            "updated_date": "2023-01-24T12:32:51-06:00"
        },
        "Who is Shelith Hansbro": {
            "url": "https://www.decaturvote.com/story/shelith-hansbro/who-is-shelith-hansbro/",
            "title": "Who is Shelith Hansbro",
            "description": "Shelith Hansbro is a candidate for Decatur Park Commissioner in 2023.",
            "photo_url": "https://www.decaturvote.com/files/download/?stored_name=bb49267ebed2f1b083e461b414c5adb8b21bf4f7-63d17c7093bb2.jpg",
            "author_name": "Reed Sutman",
            "author_url": "https://www.decaturvote.com/author/reed-sutman/",
            "created_date": "2023-01-25T11:01:56-06:00",
            "updated_date": "2023-01-25T11:01:56-06:00"
        },
        "About DecaturVote com": {
            "url": "https://www.decaturvote.com/story/decatur-vote/about-decaturvotecom/",
            "title": "About DecaturVote com",
            "description": "DecaturVote.com is a for-purpose business legally organized for-profit. I want to bring local voter information to the forefront, making it accessible & easy...",
            "photo_url": "https://www.decaturvote.com/files/download/?stored_name=1d9e0d21f247ac5c3b8d4f99a136f5d49f98b5cf-62a8cb87b125a.png",
            "author_name": "Reed Sutman",
            "author_url": "https://www.decaturvote.com/author/reed-sutman/",
            "created_date": "2022-06-14T11:58:43-05:00",
            "updated_date": "2023-01-13T15:26:35-06:00"
        },
        "2021 Macon County Board Redistricting": {
            "url": "https://www.decaturvote.com/article/2021-macon-county-board-redistricting/",
            "title": "2021 Macon County Board Redistricting",
            "description": "Voting districts are redrawn every ten years, after the U.S. census is completed. In 2021, Macon County board districts were redrawn. Republican County Board...",
            "photo_url": "https://www.decaturvote.com/files/download/?stored_name=c67e6d5e4d65cfd569ffae3bf32852ac038f08dd-62eac47f61902.jpg",
            "author_name": "Reed Sutman",
            "author_url": "https://www.decaturvote.com/author/reed-sutman/",
            "created_date": "2022-08-03T11:01:59-05:00",
            "updated_date": "2023-01-13T13:43:05-06:00"
        },
        "Employment Rates in Decatur, IL": {
            "url": "https://www.decaturvote.com/article/employment-rates-in-decatur-il/",
            "title": "Employment Rates in Decatur, IL",
            "description": "The purpose of this article is to assess the local rate of employment and how it has changed over the past decade. My very limited review of the average week...",
            "photo_url": null,
            "author_name": "Reed Sutman",
            "author_url": "https://www.decaturvote.com/author/reed-sutman/",
            "created_date": "2022-08-09T12:27:24-05:00",
            "updated_date": "2023-01-13T13:43:05-06:00"
        },
        "What are slated candidates?": {
            "url": "https://www.decaturvote.com/article/what-are-slated-candidates/",
            "title": "What are slated candidates?",
            "description": "Many candidates participate in the Primary election. Primaries involve voting amongst your own political party to pick which candidates will run for a partic...",
            "photo_url": null,
            "author_name": "Reed Sutman",
            "author_url": "https://www.decaturvote.com/author/reed-sutman/",
            "created_date": "2022-08-09T10:35:09-05:00",
            "updated_date": "2023-01-13T13:43:05-06:00"
        }
    }
}
