{
    "outlet_name": "Decatur Vote",
    "feed_name": "Sources", 

    "url": "https://www.decaturvote.com/sources/",

    "initial_page_depth": 10,
    "standard_page_depth": 2,
    "max_poll_frequency": 1,

    "article_selector": "//div[@class=\"NewsItem\"]",

    "title_selector": "//h2/a",
    "url_selector": "//h2/a",
    "description_selector": "//p",
    "photo_selector": null,
    "next_page_selector": "//nav[contains(concat(' ',normalize-space(@class),' '),' Paginate ')]/a[last()]",

    "date_selector": "//small",
    "date_type": "inner_text",
    "date_pattern": "/([0-9][0-9]\\-[0-9][0-9]\\-[0-9][0-9][0-9][0-9])\\s*$/",
    "date_format": "m-d-Y",

    "pagination_delay_ms": 1
    
}
