{
    "outlet_name": "DPS 61 School Board",
    "feed_name": "Facility Committee Agendas", 

    "url": "https://www.dps61.org/Page/69",

    "initial_page_depth": 10,
    "standard_page_depth": 2,
    "max_poll_frequency": 360,

    "article_selector": "//div[@id=\"content-accordion-panel-173-3645\"]/p",

    "title_selector": "//p/a",
    "url_selector": "//p/a",
    "description_selector": "//p/a",
    "photo_selector": null,
    "next_page_selector":null,

    "date_selector": "//p/a",
    "date_type": "inner_text",
    "date_pattern": "/([JFMASOND][a-zA-Z]{2,8}\\s+[0-9]{1,2}?\\s*,\\s+[0-9]{4}|[0-9]{1,2}.[0-9]{1,2}.+[0-9]{1,2})/",
    "date_format": "F j, Y"
    
}
